{
 "autoname": "field:codparroquia",
 "creation": "2020-05-27 20:46:04.416703",
 "doctype": "DocType",
 "editable_grid": 1,
 "engine": "InnoDB",
 "field_order": [
  "codprovincia",
  "nomprovincia",
  "codcanton",
  "nomcanton",
  "codparroquia",
  "nomparroquia"
 ],
 "fields": [
  {
   "fieldname": "codprovincia",
   "fieldtype": "Data",
   "in_list_view": 1,
   "label": "C\u00f3digo Provincia",
   "reqd": 1
  },
  {
   "fieldname": "nomprovincia",
   "fieldtype": "Data",
   "in_list_view": 1,
   "label": "Nombre Provincia",
   "reqd": 1
  },
  {
   "fieldname": "codcanton",
   "fieldtype": "Data",
   "in_list_view": 1,
   "label": "C\u00f3digo Cant\u00f3n",
   "reqd": 1
  },
  {
   "fieldname": "nomcanton",
   "fieldtype": "Data",
   "in_list_view": 1,
   "label": "Nombre Canton",
   "reqd": 1
  },
  {
   "fieldname": "codparroquia",
   "fieldtype": "Data",
   "label": "C\u00f3digo Parroquia",
   "reqd": 1,
   "unique": 1
  },
  {
   "fieldname": "nomparroquia",
   "fieldtype": "Data",
   "label": "Nombre de Parroquia",
   "reqd": 1
  }
 ],
 "modified": "2020-05-27 21:24:44.106947",
 "modified_by": "Administrator",
 "module": "Sie",
 "name": "DPA",
 "owner": "Administrator",
 "permissions": [
  {
   "create": 1,
   "delete": 1,
   "email": 1,
   "export": 1,
   "print": 1,
   "read": 1,
   "report": 1,
   "role": "System Manager",
   "share": 1,
   "write": 1
  },
  {
   "create": 1,
   "delete": 1,
   "email": 1,
   "export": 1,
   "print": 1,
   "read": 1,
   "report": 1,
   "role": "GERENTE",
   "share": 1,
   "write": 1
  }
 ],
 "search_fields": "nomprovincia,nomcanton,nomparroquia",
 "sort_field": "modified",
 "sort_order": "DESC",
 "track_changes": 1
}